{
    "images": [
        {
            "id": 13764801,
            "name": "Elixir on 14.04",
            "distribution": "Ubuntu",
            "slug": null,
            "public": true,
            "regions": [
                "nyc1",
                "sfo1",
                "nyc2",
                "ams2",
                "sgp1",
                "lon1",
                "nyc3",
                "ams3",
                "fra1",
                "tor1",
                "sfo2",
                "blr1"
            ],
            "created_at": "2015-09-30T15:42:07Z",
            "min_disk_size": 30,
            "type": "snapshot",
            "size_gigabytes": 1.85
        },
        {
            "id": 14782899,
            "name": "6.7 x32",
            "distribution": "CentOS",
            "slug": null,
            "public": true,
            "regions": [
                "nyc1",
                "sfo1",
                "nyc2",
                "ams2",
                "sgp1",
                "lon1",
                "nyc3",
                "ams3",
                "fra1",
                "tor1",
                "sfo2",
                "blr1"
            ],
            "created_at": "2015-12-10T17:10:48Z",
            "min_disk_size": 20,
            "type": "snapshot",
            "size_gigabytes": 0.5
        },
        {
            "id": 14782952,
            "name": "6.7 x64",
            "distribution": "CentOS",
            "slug": null,
            "public": true,
            "regions": [
                "nyc1",
                "sfo1",
                "nyc2",
                "ams2",
                "sgp1",
                "lon1",
                "nyc3",
                "ams3",
                "fra1",
                "tor1",
                "sfo2",
                "blr1"
            ],
            "created_at": "2015-12-10T17:19:06Z",
            "min_disk_size": 20,
            "type": "snapshot",
            "size_gigabytes": 0.53
        },
        {
            "id": 16071652,
            "name": "cloudbench-ycsb-on-1404.030216-1",
            "distribution": "Ubuntu",
            "slug": null,
            "public": true,
            "regions": [
                "nyc1",
                "sfo1",
                "nyc2",
                "ams2",
                "sgp1",
                "lon1",
                "nyc3",
                "ams3",
                "fra1",
                "tor1",
                "sfo2",
                "blr1"
            ],
            "created_at": "2016-03-02T16:16:02Z",
            "min_disk_size": 60,
            "type": "snapshot",
            "size_gigabytes": 1.35
        },
        {
            "id": 16071743,
            "name": "cloudbench-hibench-on-1404.030216-1",
            "distribution": "Ubuntu",
            "slug": null,
            "public": true,
            "regions": [
                "nyc1",
                "sfo1",
                "nyc2",
                "ams2",
                "sgp1",
                "lon1",
                "nyc3",
                "ams3",
                "fra1",
                "tor1",
                "sfo2",
                "blr1"
            ],
            "created_at": "2016-03-02T16:41:16Z",
            "min_disk_size": 60,
            "type": "snapshot",
            "size_gigabytes": 2.25
        },
        {
            "id": 16082940,
            "name": "cloudbench-nullworkload-on-1404.030316-6",
            "distribution": "Ubuntu",
            "slug": null,
            "public": true,
            "regions": [
                "nyc1",
                "sfo1",
                "nyc2",
                "ams2",
                "sgp1",
                "lon1",
                "nyc3",
                "ams3",
                "fra1",
                "tor1",
                "sfo2",
                "blr1"
            ],
            "created_at": "2016-03-03T07:39:02Z",
            "min_disk_size": 20,
            "type": "snapshot",
            "size_gigabytes": 0.9
        },
        {
            "id": 16376426,
            "name": "Cassandra on 14.04",
            "distribution": "Ubuntu",
            "slug": "cassandra",
            "public": true,
            "regions": [
                "nyc1",
                "sfo1",
                "nyc2",
                "ams2",
                "sgp1",
                "lon1",
                "nyc3",
                "ams3",
                "fra1",
                "tor1",
                "sfo2",
                "blr1"
            ],
            "created_at": "2016-03-21T04:25:45Z",
            "min_disk_size": 30,
            "type": "snapshot",
            "size_gigabytes": 0.59
        },
        {
            "id": 16623283,
            "name": "7.10 x32",
            "distribution": "Debian",
            "slug": null,
            "public": true,
            "regions": [
                "nyc1",
                "sfo1",
                "nyc2",
                "ams2",
                "sgp1",
                "lon1",
                "nyc3",
                "ams3",
                "fra1",
                "tor1",
                "sfo2",
                "blr1"
            ],
            "created_at": "2016-04-04T18:11:05Z",
            "min_disk_size": 20,
            "type": "snapshot",
            "size_gigabytes": 0.3
        },
        {
            "id": 16623308,
            "name": "7.10 x64",
            "distribution": "Debian",
            "slug": null,
            "public": true,
            "regions": [
                "nyc1",
                "sfo1",
                "nyc2",
                "ams2",
                "sgp1",
                "lon1",
                "nyc3",
                "ams3",
                "fra1",
                "tor1",
                "sfo2",
                "blr1"
            ],
            "created_at": "2016-04-04T18:18:11Z",
            "min_disk_size": 20,
            "type": "snapshot",
            "size_gigabytes": 0.3
        },
        {
            "id": 17384153,
            "name": "7.2 x64",
            "distribution": "CentOS",
            "slug": null,
            "public": true,
            "regions": [
                "nyc1",
                "sfo1",
                "nyc2",
                "ams2",
                "sgp1",
                "lon1",
                "nyc3",
                "ams3",
                "fra1",
                "tor1",
                "sfo2",
                "blr1"
            ],
            "created_at": "2016-05-17T16:17:10Z",
            "min_disk_size": 20,
            "type": "snapshot",
            "size_gigabytes": 0.43
        },
        {
            "id": 17550956,
            "name": "hadoop1",
            "distribution": "Ubuntu",
            "slug": null,
            "public": true,
            "regions": [
                "nyc1",
                "sfo1",
                "nyc2",
                "ams2",
                "sgp1",
                "lon1",
                "nyc3",
                "ams3",
                "fra1",
                "tor1",
                "sfo2",
                "blr1"
            ],
            "created_at": "2016-05-26T22:25:41Z",
            "min_disk_size": 60,
            "type": "snapshot",
            "size_gigabytes": 2.29
        },
        {
            "id": 17551182,
            "name": "cassandra1",
            "distribution": "Ubuntu",
            "slug": null,
            "public": true,
            "regions": [
                "nyc1",
                "sfo1",
                "nyc2",
                "ams2",
                "sgp1",
                "lon1",
                "nyc3",
                "ams3",
                "fra1",
                "tor1",
                "sfo2",
                "blr1"
            ],
            "created_at": "2016-05-26T22:37:32Z",
            "min_disk_size": 60,
            "type": "snapshot",
            "size_gigabytes": 1.43
        },
        {
            "id": 18290419,
            "name": "7.11 x32",
            "distribution": "Debian",
            "slug": null,
            "public": true,
            "regions": [
                "nyc1",
                "sfo1",
                "nyc2",
                "ams2",
                "sgp1",
                "lon1",
                "nyc3",
                "ams3",
                "fra1",
                "tor1",
                "sfo2",
                "blr1"
            ],
            "created_at": "2016-07-05T21:26:04Z",
            "min_disk_size": 20,
            "type": "snapshot",
            "size_gigabytes": 20.97
        },
        {
            "id": 18325354,
            "name": "7.2 x64",
            "distribution": "CentOS",
            "slug": null,
            "public": true,
            "regions": [
                "nyc1",
                "sfo1",
                "nyc2",
                "ams2",
                "sgp1",
                "lon1",
                "nyc3",
                "ams3",
                "fra1",
                "tor1",
                "sfo2",
                "blr1"
            ],
            "created_at": "2016-07-07T16:11:45Z",
            "min_disk_size": 20,
            "type": "snapshot",
            "size_gigabytes": 20.97
        },
        {
            "id": 21419098,
            "name": "[EOL] 7.2.1511 x64",
            "distribution": "CentOS",
            "slug": null,
            "public": true,
            "regions": [
                "nyc1",
                "sfo1",
                "nyc2",
                "ams2",
                "sgp1",
                "lon1",
                "nyc3",
                "ams3",
                "fra1",
                "tor1",
                "sfo2",
                "blr1"
            ],
            "created_at": "2016-12-09T14:08:49Z",
            "min_disk_size": 20,
            "type": "snapshot",
            "size_gigabytes": 0.5
        },
        {
            "id": 21669205,
            "name": "16.04.1 x64",
            "distribution": "Ubuntu",
            "slug": null,
            "public": true,
            "regions": [
                "nyc1",
                "sfo1",
                "nyc2",
                "ams2",
                "sgp1",
                "lon1",
                "nyc3",
                "ams3",
                "fra1",
                "tor1",
                "sfo2",
                "blr1"
            ],
            "created_at": "2016-12-21T16:06:27Z",
            "min_disk_size": 20,
            "type": "snapshot",
            "size_gigabytes": 0.33
        },
        {
            "id": 22580948,
            "name": "1235.9.0 (stable)",
            "distribution": "CoreOS",
            "slug": null,
            "public": true,
            "regions": [
                "nyc1",
                "sfo1",
                "nyc2",
                "ams2",
                "sgp1",
                "lon1",
                "nyc3",
                "ams3",
                "fra1",
                "tor1",
                "sfo2",
                "blr1"
            ],
            "created_at": "2017-02-02T17:36:26Z",
            "min_disk_size": 20,
            "type": "snapshot",
            "size_gigabytes": 0.32
        },
        {
            "id": 23219707,
            "name": "Docker 17.03.0-ce on 14.04",
            "distribution": "Ubuntu",
            "slug": "docker",
            "public": true,
            "regions": [
                "nyc1",
                "sfo1",
                "nyc2",
                "ams2",
                "sgp1",
                "lon1",
                "nyc3",
                "ams3",
                "fra1",
                "tor1",
                "sfo2",
                "blr1"
            ],
            "created_at": "2017-03-03T16:10:53Z",
            "min_disk_size": 20,
            "type": "snapshot",
            "size_gigabytes": 0.5
        },
        {
            "id": 23220211,
            "name": "25 x64 Atomic",
            "distribution": "Fedora",
            "slug": null,
            "public": true,
            "regions": [
                "nyc1",
                "sfo1",
                "nyc2",
                "ams2",
                "sgp1",
                "lon1",
                "nyc3",
                "ams3",
                "fra1",
                "tor1",
                "sfo2",
                "blr1"
            ],
            "created_at": "2017-03-03T17:31:51Z",
            "min_disk_size": 20,
            "type": "snapshot",
            "size_gigabytes": 0.67
        },
        {
            "id": 24232319,
            "name": "Ruby-on-Rails on 16.04",
            "distribution": "Ubuntu",
            "slug": "ruby-on-rails-16-04",
            "public": true,
            "regions": [
                "nyc1",
                "sfo1",
                "nyc2",
                "ams2",
                "sgp1",
                "lon1",
                "nyc3",
                "ams3",
                "fra1",
                "tor1",
                "sfo2",
                "blr1"
            ],
            "created_at": "2017-04-17T18:09:13Z",
            "min_disk_size": 20,
            "type": "snapshot",
            "size_gigabytes": 0.54
        }
    ],
    "links": {
        "pages": {
            "last": "https://api.digitalocean.com/v2/images?page=4",
            "next": "https://api.digitalocean.com/v2/images?page=2"
        }
    },
    "meta": {
        "total": 77
    }
}